M48
; DRILL file {KiCad 8.0.1+b2} date 2024-04-29T13:16:37+0200
; FORMAT={-:-/ absolute / inch / decimal}
; #@! TF.CreationDate,2024-04-29T13:16:37+02:00
; #@! TF.GenerationSoftware,Kicad,Pcbnew,8.0.1+b2
; #@! TF.FileFunction,NonPlated,1,2,NPTH
FMAT,2
INCH
%
G90
G05
M30
